…
    ## Calculating cluster 3

    ## Calculating cluster 4

    ## Calculating cluster 5

    ## Calculating cluster 6

``` r
seurat.markers %>%
  group_by(cluster) %>%
  dplyr::filter(avg_log2FC > 1)
```

    ## # A tibble: 5,572 × 7
    ## # Groups:   cluster [7]
    ##       p_val avg_log2FC pct.1 pct.2 p_val_adj cluster gene                     
    ##       <dbl>      <dbl> <dbl> <dbl>     <dbl> <fct>   <chr>                    
    ##  1 2.20e-78       1.46 0.821 0.526  5.48e-74 0       gene:Ha412HOChr14g0635561
    ##  2 2.62e-49       2.05 0.438 0.167  6.53e-45 0       gene:Ha412HOChr09g0397821
    ##  3 1.92e-48       3.34 0.248 0.048  4.80e-44 0       gene:Ha412HOChr05g0223801
    ##  4 2.13e-37       1.42 0.619 0.449  5.32e-33 0       gene:Ha412HOChr13g0611131
    ##  5 3.61e-37       3.62 0.156 0.021  9.00e-33 0       gene:Ha412HOChr14g0649091
    ##  6 1.85e-35       1.90 0.495 0.293  4.62e-31 0       gene:Ha412HOChr17g0838381
    ##  7 5.06e-33       2.95 0.167 0.029  1.26e-28 0       gene:Ha412HOChr01g0015891
    ##  8 8.38e-26       2.38 0.223 0.073  2.09e-21 0       gene:Ha412HOChr04g0189201
    ##  9 3.90e-25       2.06 0.227 0.076  9.72e-21 0       gene:Ha412HOChr02g0068601
    ## 10 1.34e-24       1.81 0.312 0.14   3.35e-20 0       gene:Ha412HOChr12g0579231
    ## # ℹ 5,562 more rows
…
    ## Calculating cluster 6

    ## Calculating cluster 7

    ## Calculating cluster 8

    ## Calculating cluster 9

``` r
seurat_XRQ.markers %>%
  group_by(cluster) %>%
  dplyr::filter(avg_log2FC > 1)
```

    ## # A tibble: 3,479 × 7
    ## # Groups:   cluster [10]
    ##        p_val avg_log2FC pct.1 pct.2 p_val_adj cluster gene                     
    ##        <dbl>      <dbl> <dbl> <dbl>     <dbl> <fct>   <chr>                    
    ##  1 5.06e-  3       1.01 0.01  0.006 1   e+  0 0       gene:Ha412HOChr15g0716501
    ##  2 1.45e-163       2.61 0.152 0.03  4.26e-159 1       gene:Ha412HOChr15g0716671
    ##  3 1.08e-159       2.76 0.166 0.038 3.17e-155 1       gene:Ha412HOChr12g0565541
    ##  4 3.63e-144       3.03 0.107 0.016 1.07e-139 1       gene:Ha412HOChr06g0263501
    ##  5 5.18e-140       2.78 0.116 0.02  1.52e-135 1       gene:Ha412HOChr08g0365321
    ##  6 1.33e-123       2.42 0.131 0.03  3.90e-119 1       gene:Ha412HOChr16g0776481
    ##  7 1.40e-111       3.17 0.078 0.011 4.12e-107 1       gene:Ha412HOChr06g0263531
    ##  8 3.39e-107       2.56 0.106 0.022 9.96e-103 1       gene:Ha412HOChr16g0757601
    ##  9 1.53e- 92       2.79 0.076 0.013 4.51e- 88 1       gene:Ha412HOChr09g0417601
    ## 10 2.06e- 92       1.91 0.147 0.046 6.05e- 88 1       gene:Ha412HOChr02g0082891
    ## # ℹ 3,469 more rows
…
