…
    ## Calculating cluster 3

    ## Calculating cluster 4

    ## Calculating cluster 5

    ## Calculating cluster 6

``` r
seurat.markers %>%
  group_by(cluster) %>%
  dplyr::filter(avg_log2FC > 1)
```

    ## # A tibble: 7,305 × 7
    ## # Groups:   cluster [7]
    ##       p_val avg_log2FC pct.1 pct.2 p_val_adj cluster gene                     
    ##       <dbl>      <dbl> <dbl> <dbl>     <dbl> <fct>   <chr>                    
    ##  1 4.16e-39       1.15 0.955 0.825  1.02e-34 0       gene:Ha412HOChr16g0755301
    ##  2 8.69e-34       1.23 0.777 0.536  2.12e-29 0       gene:Ha412HOChr11g0480511
    ##  3 1.42e-33       1.32 0.782 0.54   3.47e-29 0       gene:Ha412HOChr02g0090621
    ##  4 1.12e-32       1.97 0.466 0.178  2.74e-28 0       gene:Ha412HOChr04g0184181
    ##  5 5.80e-28       1.17 0.795 0.565  1.42e-23 0       gene:Ha412HOChr05g0240781
    ##  6 1.07e-23       1.73 0.464 0.218  2.61e-19 0       gene:Ha412HOChr09g0372421
    ##  7 7.83e-22       1.35 0.507 0.266  1.91e-17 0       gene:Ha412HOChr11g0513501
    ##  8 7.84e-21       2.77 0.216 0.049  1.91e-16 0       gene:Ha412HOChr17g0833761
    ##  9 2.07e-20       1.07 0.807 0.642  5.06e-16 0       gene:Ha412HOChr10g0445761
    ## 10 2.79e-20       1.19 0.557 0.34   6.81e-16 0       gene:Ha412HOChr05g0220801
    ## # ℹ 7,295 more rows
…
    ## Calculating cluster 3

    ## Calculating cluster 4

    ## Calculating cluster 5

    ## Calculating cluster 6

``` r
seurat_XRQ.markers %>%
  group_by(cluster) %>%
  dplyr::filter(avg_log2FC > 1)
```

    ## # A tibble: 4,827 × 7
    ## # Groups:   cluster [7]
    ##       p_val avg_log2FC pct.1 pct.2  p_val_adj cluster gene                     
    ##       <dbl>      <dbl> <dbl> <dbl>      <dbl> <fct>   <chr>                    
    ##  1 8.82e-11       1.01 0.216 0.135 0.00000249 0       gene:Ha412HOChr02g0061681
    ##  2 4.10e- 6       2.59 0.02  0.004 0.115      0       gene:Ha412HOChr01g0014391
    ##  3 1.01e- 5       2.20 0.021 0.005 0.285      0       gene:Ha412HOChr11g0491371
    ##  4 4.45e- 5       3.25 0.012 0.001 1          0       gene:Ha412HOChr08g0362541
    ##  5 2.07e- 4       1.04 0.056 0.03  1          0       gene:Ha412HOChr10g0471931
    ##  6 2.43e- 4       1.12 0.041 0.019 1          0       gene:Ha412HOChr03g0143341
    ##  7 4.53e- 4       2.44 0.013 0.003 1          0       gene:Ha412HOChr09g0425681
    ##  8 4.63e- 4       2.24 0.012 0.002 1          0       gene:Ha412HOChr04g0196341
    ##  9 7.27e- 4       1.77 0.016 0.005 1          0       gene:Ha412HOChr10g0462491
    ## 10 1.00e- 3       1.98 0.014 0.004 1          0       gene:Ha412HOChr17g0841501
    ## # ℹ 4,817 more rows
…
